^E:\PROGRAMMING\C++PROGR\GLLR1\GLLR1\CAMERA.CPP|E:\PROGRAMMING\C++PROGR\GLLR1\GLLR1\SOURCE.CPP
E:\PROGRAMMING\C++PROGR\GLLR1\GLLR1\DEBUG\VC142.PDB
E:\PROGRAMMING\C++PROGR\GLLR1\GLLR1\DEBUG\VC142.IDB
E:\PROGRAMMING\C++PROGR\GLLR1\GLLR1\DEBUG\SOURCE.OBJ
E:\PROGRAMMING\C++PROGR\GLLR1\GLLR1\DEBUG\CAMERA.OBJ
^E:\PROGRAMMING\C++PROGR\GLLR1\GLLR1\CAMERA.CPP
E:\PROGRAMMING\C++PROGR\GLLR1\GLLR1\DEBUG\VC142.PDB
^E:\PROGRAMMING\C++PROGR\GLLR1\GLLR1\SOURCE.CPP
E:\PROGRAMMING\C++PROGR\GLLR1\GLLR1\DEBUG\VC142.PDB
