^C:\USERS\АРТЁМ\SOURCE\REPOS\GLLR1\GLLR1\DEBUG\SOURCE.OBJ
/OUT:"C:\USERS\АРТЁМ\SOURCE\REPOS\GLLR1\DEBUG\GLLR1.EXE" /INCREMENTAL /NOLOGO /LIBPATH:"C:\USERS\АРТЁМ\SOURCE\REPOS\GLLR1\GLLR1\FREEGLUT" /LIBPATH:"C:\USERS\АРТЁМ\SOURCE\REPOS\GLLR1\GLLR1\GLAUX" KERNEL32.LIB USER32.LIB GDI32.LIB WINSPOOL.LIB COMDLG32.LIB ADVAPI32.LIB SHELL32.LIB OLE32.LIB OLEAUT32.LIB UUID.LIB ODBC32.LIB ODBCCP32.LIB /MANIFEST /MANIFESTUAC:"level='asInvoker' uiAccess='false'" /manifest:embed /DEBUG:FASTLINK /PDB:"C:\USERS\АРТЁМ\SOURCE\REPOS\GLLR1\DEBUG\GLLR1.PDB" /SUBSYSTEM:CONSOLE /TLBID:1 /DYNAMICBASE /NXCOMPAT /IMPLIB:"C:\USERS\АРТЁМ\SOURCE\REPOS\GLLR1\DEBUG\GLLR1.LIB" /MACHINE:X86 DEBUG\SOURCE.OBJ
^E:\PROGRAMMING\C++PROGR\GLLR1\GLLR1\DEBUG\SOURCE.OBJ
/OUT:"E:\PROGRAMMING\C++PROGR\GLLR1\DEBUG\GLLR1.EXE" /INCREMENTAL /NOLOGO /LIBPATH:E:\PROGRAMMING\C++PROGR\GLLR1\GLLR1\GLAUX /LIBPATH:E:\PROGRAMMING\C++PROGR\GLLR1\GLLR1\FREEGLUT KERNEL32.LIB USER32.LIB GDI32.LIB WINSPOOL.LIB COMDLG32.LIB ADVAPI32.LIB SHELL32.LIB OLE32.LIB OLEAUT32.LIB UUID.LIB ODBC32.LIB ODBCCP32.LIB /MANIFEST /MANIFESTUAC:"level='asInvoker' uiAccess='false'" /manifest:embed /DEBUG:FASTLINK /PDB:"E:\PROGRAMMING\C++PROGR\GLLR1\DEBUG\GLLR1.PDB" /SUBSYSTEM:CONSOLE /TLBID:1 /DYNAMICBASE /NXCOMPAT /IMPLIB:"E:\PROGRAMMING\C++PROGR\GLLR1\DEBUG\GLLR1.LIB" /MACHINE:X86 DEBUG\SOURCE.OBJ
^E:\PROGRAMMING\C++PROGR\GLLR1\GLLR1\DEBUG\CAMERA.OBJ|E:\PROGRAMMING\C++PROGR\GLLR1\GLLR1\DEBUG\SOURCE.OBJ
/OUT:"E:\PROGRAMMING\C++PROGR\GLLR1\DEBUG\GLLR1.EXE" /INCREMENTAL /NOLOGO /LIBPATH:E:\PROGRAMMING\C++PROGR\GLLR1\GLLR1\GLAUX /LIBPATH:E:\PROGRAMMING\C++PROGR\GLLR1\GLLR1\FREEGLUT KERNEL32.LIB USER32.LIB GDI32.LIB WINSPOOL.LIB COMDLG32.LIB ADVAPI32.LIB SHELL32.LIB OLE32.LIB OLEAUT32.LIB UUID.LIB ODBC32.LIB ODBCCP32.LIB /MANIFEST /MANIFESTUAC:"level='asInvoker' uiAccess='false'" /manifest:embed /DEBUG:FASTLINK /PDB:"E:\PROGRAMMING\C++PROGR\GLLR1\DEBUG\GLLR1.PDB" /SUBSYSTEM:CONSOLE /TLBID:1 /DYNAMICBASE /NXCOMPAT /IMPLIB:"E:\PROGRAMMING\C++PROGR\GLLR1\DEBUG\GLLR1.LIB" /MACHINE:X86 DEBUG\CAMERA.OBJ
DEBUG\SOURCE.OBJ
