^E:\PROGRAMMING\C++PROGR\GLLR2(ANIMATIONS)\GLLR2(ANIMATIONS)\DEBUG\CAMERA.OBJ|E:\PROGRAMMING\C++PROGR\GLLR2(ANIMATIONS)\GLLR2(ANIMATIONS)\DEBUG\SOURCE.OBJ
/OUT:"E:\PROGRAMMING\C++PROGR\GLLR2(ANIMATIONS)\DEBUG\GLLR2(ANIMATIONS).EXE" /INCREMENTAL /NOLOGO KERNEL32.LIB USER32.LIB GDI32.LIB WINSPOOL.LIB COMDLG32.LIB ADVAPI32.LIB SHELL32.LIB OLE32.LIB OLEAUT32.LIB UUID.LIB ODBC32.LIB ODBCCP32.LIB /MANIFEST /MANIFESTUAC:"level='asInvoker' uiAccess='false'" /manifest:embed /DEBUG:FASTLINK /PDB:"E:\PROGRAMMING\C++PROGR\GLLR2(ANIMATIONS)\DEBUG\GLLR2(ANIMATIONS).PDB" /SUBSYSTEM:CONSOLE /TLBID:1 /DYNAMICBASE /NXCOMPAT /IMPLIB:"E:\PROGRAMMING\C++PROGR\GLLR2(ANIMATIONS)\DEBUG\GLLR2(ANIMATIONS).LIB" /MACHINE:X86 DEBUG\CAMERA.OBJ
DEBUG\SOURCE.OBJ
