^E:\PROGRAMMING\C++PROGR\GLLR3\GLLR3\CAMERA.CPP
/c /IE:\PROGRAMMING\C++PROGR\GLLR3\GLLR3\GRAPWORKSPACE /ZI /JMC /nologo /W3 /WX- /diagnostics:column /sdl /Od /Oy- /D _DEBUG /D _CONSOLE /D _UNICODE /D UNICODE /Gm- /EHsc /RTC1 /MDd /GS /fp:precise /permissive- /Zc:wchar_t /Zc:forScope /Zc:inline /Fo"DEBUG\\" /Fd"DEBUG\VC142.PDB" /Gd /TP /analyze- /FC E:\PROGRAMMING\C++PROGR\GLLR3\GLLR3\CAMERA.CPP
^E:\PROGRAMMING\C++PROGR\GRAPWORKSPACE\DSK.CPP
/c /IE:\PROGRAMMING\C++PROGR\GLLR3\GLLR3\GRAPWORKSPACE /ZI /JMC /nologo /W3 /WX- /diagnostics:column /sdl /Od /Oy- /D _DEBUG /D _CONSOLE /D _UNICODE /D UNICODE /Gm- /EHsc /RTC1 /MDd /GS /fp:precise /permissive- /Zc:wchar_t /Zc:forScope /Zc:inline /Fo"DEBUG\\" /Fd"DEBUG\VC142.PDB" /Gd /TP /analyze- /FC E:\PROGRAMMING\C++PROGR\GRAPWORKSPACE\DSK.CPP
^E:\PROGRAMMING\C++PROGR\GLLR3\GLLR3\SOURCE.CPP
/c /IE:\PROGRAMMING\C++PROGR\GLLR3\GLLR3\GRAPWORKSPACE /ZI /JMC /nologo /W3 /WX- /diagnostics:column /sdl /Od /Oy- /D _DEBUG /D _CONSOLE /D _UNICODE /D UNICODE /Gm- /EHsc /RTC1 /MDd /GS /fp:precise /permissive- /Zc:wchar_t /Zc:forScope /Zc:inline /Fo"DEBUG\\" /Fd"DEBUG\VC142.PDB" /Gd /TP /analyze- /FC E:\PROGRAMMING\C++PROGR\GLLR3\GLLR3\SOURCE.CPP
