^E:\PROGRAMMING\C++PROGR\GLLR3\GLLR3\DEBUG\CAMERA.OBJ|E:\PROGRAMMING\C++PROGR\GLLR3\GLLR3\DEBUG\DSK.OBJ|E:\PROGRAMMING\C++PROGR\GLLR3\GLLR3\DEBUG\SOURCE.OBJ
E:\PROGRAMMING\C++PROGR\GLLR3\DEBUG\GLLR3.EXE
E:\PROGRAMMING\C++PROGR\GLLR3\DEBUG\GLLR3.ILK
E:\PROGRAMMING\C++PROGR\GLLR3\DEBUG\GLLR3.PDB
